Session 6: Homework 3 · Maximilien
…
GDP_calculate <- tidy_GDP_data %>%
   filter(IndicatorName %in% c("Gross Capital Formation", "Exports", "Government expenditure", "Household expenditure", "Imports", "Gross Domestic Product (GDP)")) %>% 
                   pivot_wider(names_from = "IndicatorName",
                               values_from = "value") %>% 
                   summarise(Country, year, GDP_calculated = `Household expenditure`+`Government expenditure`+`Gross Capital Formation`+`Exports`-`Imports`, percentage_difference = (GDP_calculated/`Gross Domestic Product (GDP)`-1)*100)

 graph4 <- GDP_calculate %>%
   group_by(year)%>%
   na.omit(percentage_difference)%>%
   summarise(mean_percentage_difference = mean(percentage_difference))
GDP_calculate

## # A tibble: 10,560 x 4
##    Country     year  GDP_calculated percentage_difference
##    <chr>       <chr>          <dbl>                 <dbl>
##  1 Afghanistan 1970            6.35                 -40.8
##  2 Afghanistan 1971            6.15                 -42.5
##  3 Afghanistan 1972            5.94                 -33.6
##  4 Afghanistan 1973            6.49                 -29.4
##  5 Afghanistan 1974            7.09                 -26.9
##  6 Afghanistan 1975            7.47                 -27.5
##  7 Afghanistan 1976            8.20                 -24.6
##  8 Afghanistan 1977            8.49                 -17.7
##  9 Afghanistan 1978            8.98                 -19.0
## 10 Afghanistan 1979            8.68                 -19.6
## # … with 10,550 more rows
…
